{
	"acceptPrps": {},
	"prps": {
		"scps": [
			{
				"triggers": [
					{
						"event": "onMount"
					},
					{
						"event": "onStateChange",
						"source": "||formInput||",
						"key": "hasError"
					}
				],
				"actions": [
					{
						"type": "applyComparison",
						"operator": "all",
						"^comparisons": [
							{
								"operator": "isTruthy",
								"value": "{{state.||formInput||.hasBeenTouched}}"
							},
							{
								"operator": "isTruthy",
								"value": "{{state.||formInput||.hasError}}"
							}
						],
						"branch": {
							"true": [
								{
									"type": "setState",
									"key": "color",
									"value": "error"
								}
							],
							"false": [
								{
									"type": "setState",
									"key": "color",
									"value": "primaryText"
								}
							]
						}
					}
				]
			}
		]
	}
}