{
	"acceptPrps": {
		"cellId": "string",
		"columnCellValue": "mixed"
	},
	"prps": {
		"canHover": true,
		"tooltipZIndex": 10005,
		"tooltipMda": 
			{
				"position": "right",
				"type": "containerSimple",
				"prps": {
					"backgroundColor": "secondary",
					"padding": true,
					"paddingSize": "tinyPadding",
					"roundedBorders": true,
					"pointerEvents": "none"
				},
				"wgts": [
					{
						"type": "label",
						"prps": {
							"color": "iconPrimary",
							"fontSize": "fontSizeMedium",
							"cpt": "%columnCellValue%"
						}
					}
				]
			}
	}
}