{
	"acceptPrps": {},
	"type": "containerSimple",
	"prps": {
		"marginTop": "6px",
		"flex": true,
		"padding": true,
		"paddingSize": "tinyPadding smallPadding",
		"border": "1px solid {theme.colors.divider}",
		"roundedBorders": true,
		"spread-": "$prpsInputContainer$"
	},
	"traits": [
		"./functional/setEnabledDisabledStyles"
	],
	"wgts": [
		{
			"relId": "input",
			"type": "input",
			"prps": {
				"value": null,
				"width": "100%",
				"cpt": "%label%",
				"hasLabel": false,
				"spread-": "$prpsInput$"
			},
			"traits": [
				"./functional/onValueChanged",
				"./functional/setEnabledDisabled"
			]
		}
	]
}