{
	"acceptPrps": {
		"title": "string"
	},
	"condition": {
		"operator": "isTruthy",
		"value": "{{state.||grid||.canMultiSelect}}"
	},
	"type": "containerSimple",
	"prps": {
		"padding": true,
		"paddingSize": "tinyPadding noPadding",
		"crossAxisAlign": "center"
	},
	"wgts": [
		{
			"type": "label",
			"prps": {
				"cpt": "%title%",
				"labelType": "h3",
				"bold": true,
				"userSelect": "text",
				"textOverflow": "ellipsis",
				"overflow": "hidden",
				"whiteSpace": "nowrap"
			}
		},
		{
			"type": "button",
			"prps": {
				"marginTop": "tinyPadding",
				"flows": [
					{
						"toKey": "prpsIcon",
						"toSubKey": "value",
						"mapFunctionString": "selected => ({ false: 'check_box_outline_blank', true: 'check_box' }[selected])"
					}
				]
			},
			"traits": [
				"./functional/selectAllRows",
				"./functional/onOverrideSelectedValue"
			]
		}
	]
}