{
	"acceptPrps": {
		"wgts": "array"
	},
	"prps": {
		"contextMenu": {
			"mda": {
				"type": "containerSimple",
				"prps": {
					"roundedBorders": true,
					"backgroundColor": "iconPrimary",
					"hasShadow": true,
					"padding": true,
					"paddingSize": "tinyPadding",
					"minWidth": "max-content"
				},
				"wgts": "$wgts$"
			}
		}
	}
}
