{
	"acceptPrps": {
		"traitData": {
			"type": "string",
			"desc": "A path to a trait that contains a 'data' property",
			"dft": "./data/example"
		},
		"idAppViewport": {
			"type": "string",
			"desc": "The id of the viewport to which the selected dashboard should be flowed"
		},
		"widthCollapsed": {
			"comment": "122 is a multiple of 6 and we add 2 extra for the border on the right",
			"type": "string",
			"dft": "122px"
		},
		"widthExpanded": {
			"comment": "272 is a multiple of 6 and we add 2 extra for the border on the right",
			"type": "string",
			"dft": "272px"
		}
	},
	"type": "containerSimple",
	"scope": "sidebar",
	"traits": [
		"./functional/storeOpenedDashboardLocalStorage",
		"./functional/openLastDashboardOnMount"
	],
	"prps": {
		"width": "%widthCollapsed%",
		"backgroundColor": "{theme.l2_sidebar_colors.background}",
		"isCollapsed": false,
		"width": "%widthExpanded%",
		"borderRight": "2px solid {theme.l2_sidebar_colors.borderRight}",
		"transitionProperty": "width",
		"transitionDuration": "0.25s",
		"selectedDashboardData": null,
		"selectedDashboard": null
	},
	"wgts": [
		{
			"traits": [
				{
					"trait": "./itemContainer",
					"traitPrps": {
						"traitData": "%traitData%",
						"isMain": true
					}
				}
			],
			"prps": {
				"expanded": true,
				"marginTop": "giantPadding"
			}
		}
	]
}