{
	"acceptPrps": {
		"gridSource": "string"
	},
	"prps": {
		"scps": [
			{
				"id": "sEGDRB",
				"triggers": [
					{
						"event": "onMount"
					},
					{
						"event": "onStateChange",
						"source": "||%gridSource%.selectedRecordsManager||",
						"key": "filters"
					}
				],
				"actions": [
					{
						"type": "applyComparison",
						"operator": "isTruthy",
						"value": "{{sEGDRB.state.||%gridSource%.selectedRecordsManager||.filters.length}}",
						"branch": {
							"true": [
								{
									"type": "findInArray",
									"value": "{{state.||%gridSource%.selectedRecordsManager||.filters}}",
									"comparison": {
										"operator": "isEqual",
										"value": "{{variable.record.value.cud_del}}",
										"compareValue": false
									},
									"storeAsVariable": "foundARecordWithoutDeletePrivileges"
								},
								{
									"type": "applyComparison",
									"operator": "isTruthy",
									"value": "{{sEGDRB.variable.foundARecordWithoutDeletePrivileges}}",
									"branch": {
										"true": [
											{
												"type": "setState",
												"key": "enabled",
												"value": false
											}
										],
										"false": [
											{
												"type": "setState",
												"key": "enabled",
												"value": true
											}
										]
									}
								},
								{
									"type": "deleteVariables",
									"variables": [
										"foundARecordWithoutDeletePrivileges"
									]
								}
							],
							"false": [
								{
									"type": "setState",
									"key": "enabled",
									"value": false
								}
							]
						}
					}
				]
			}
		]
	}
}