{
    "type": "containerSimple",
    "prps": {
        "singlePage": true,
        "mainAxisAlign": "center",
        "crossAxisAlign": "center"
    },
    "wgts": [
        {
            "type": "containerSimple",
            "prps": {
                "dir": "horizontal",
                "mainAxisAlign": "space-between",
                "crossAxisAlign": "stretch",
                "width": "100%",
                "marginTop": "smallPadding"
            },
            "wgts": [
                {
                    "traits": [
                        {
                            "trait": "@l2_inputs/formInput/index",
                            "traitPrps": {
                                "label": "Item ID",
                                "prpsInput": {
                                    "value": "Content",
                                    "color": "secondaryText"
                                }
                            }
                        }
                    ],
                    "prps": {
                        "dir": "vertical",
                        "crossAxisAlign": "start",
                        "mainAxisAlign": "start"
                    }
                },
                {
                    "traits": [
                        {
                            "trait": "@l2_inputs/formInput/index",
                            "traitPrps": {
                                "label": "Risk Rating",
                                "prpsInput": {
                                    "value": "Content"
                                }
                            }
                        }
                    ],
                    "prps": {
                        "dir": "vertical",
                        "crossAxisAlign": "start",
                        "mainAxisAlign": "start"
                    }
                }
            ]
        },
        {
            "type": "containerSimple",
            "prps": {
                "dir": "horizontal",
                "mainAxisAlign": "space-between",
                "crossAxisAlign": "stretch",
                "width": "100%",
                "marginTop": "smallPadding"
            },
            "wgts": [
                {
                    "traits": [
                        {
                            "trait": "@l2_inputs/formInput/index",
                            "traitPrps": {
                                "label": "Description",
                                "prpsInput": {
                                    "multiline": true,
                                    "value": "Lorem ipsum dolor sit amet, consectetur adipiscing elit. Phasellus bibendum congue diam. Sed sit amet vestibulum quam. Ut mattis leo nisi. Donec venenatis tempus justo, faucibus bibendum risus mollis in. Ut at mi non nulla posuere consequat. Nunc eget lobortis justo. Nullam sed nisi orci. Suspendisse auctor viverra orci, nec pharetra lacus pretium vel. Etiam porttitor nunc et justo sodales, sit amet tempus quam ultrices. Fusce in leo elit. Suspendisse id augue volutpat, interdum purus a, dictum odio. In hac habitasse platea dictumst. Ut eget ante id nunc ullamcorper laoreet fermentum nec neque. Donec rutrum bibendum ipsum quis tincidunt. Etiam vel diam dui. Nulla aliquet tempor felis ut venenatis. Pellentesque vestibulum egestas leo, vel faucibus leo bibendum quis. Nullam placerat pretium lacinia. Donec in vehicula risus. Orci varius natoque penatibus et magnis dis parturient montes, nascetur ridiculus mus. Vestibulum posuere sapien nec felis imperdiet tempor."
                                }
                            }
                        }
                    ],
                    "prps": {
                        "width": "100%"
                    }
                }
            ]
        },
        {
            "type": "containerSimple",
            "prps": {
                "dir": "horizontal",
                "mainAxisAlign": "space-between",
                "crossAxisAlign": "stretch",
                "backgroundColor": "white",
                "padding": true,
                "paddingSize": "smallPadding",
                "width": "100%",
                "marginTop": "smallPadding"
            },
            "wgts": [
                {
                    "type": "containerSimple",
                    "prps": {
                        "dir": "horizontal",
                        "autoChildMargins": true,
                        "autoChildMarginsSize": "tinyPadding"
                    },
                    "wgts": [
                        {
                            "type": "label",
                            "prps": {
                                "cpt": "Current State:",
                                "bold": "true"
                            }
                        },
                        {
                            "type": "label",
                            "prps": {
                                "cpt": "Review"
                            }
                        }
                    ]
                },
                {
                    "type": "containerSimple",
                    "prps": {
                        "dir": "horizontal",
                        "autoChildMargins": true,
                        "autoChildMarginsSize": "tinyPadding"
                    },
                    "wgts": [
                        {
                            "type": "label",
                            "prps": {
                                "cpt": "Assigned To:",
                                "bold": "true"
                            }
                        },
                        {
                            "type": "label",
                            "prps": {
                                "cpt": "User 0957"
                            }
                        }
                    ]
                },
                {
                    "type": "containerSimple",
                    "prps": {
                        "dir": "horizontal",
                        "autoChildMargins": true,
                        "autoChildMarginsSize": "tinyPadding"
                    },
                    "wgts": [
                        {
                            "type": "label",
                            "prps": {
                                "cpt": "Last Updated:",
                                "bold": "true"
                            }
                        },
                        {
                            "type": "label",
                            "prps": {
                                "cpt": "Feb 2, 2002"
                            }
                        }
                    ]
                },
                {
                    "type": "containerSimple",
                    "prps": {
                        "dir": "horizontal",
                        "autoChildMargins": true,
                        "autoChildMarginsSize": "tinyPadding"
                    },
                    "wgts": [
                        {
                            "type": "label",
                            "prps": {
                                "cpt": "Last Updated By:",
                                "bold": "true"
                            }
                        },
                        {
                            "type": "label",
                            "prps": {
                                "cpt": "User 2354"
                            }
                        }
                    ]
                },
                {
                    "type": "containerSimple",
                    "prps": {
                        "dir": "horizontal"
                    },
                    "wgts": [
                        {
                            "type": "label",
                            "prps": {
                                "cpt": "View log:",
                                "bold": "true"
                            }
                        },
                        {
                            "type": "icon",
                            "prps": {
                                "value": "content_copy",
                                "lineHeight": "calc(38px - var(--global-smallPadding))"
                            }
                        }
                    ]
                }
            ]
        },
        {
            "type": "containerSimple",
            "prps": {
                "dir": "vertical",
                "mainAxisAlign": "space-between",
                "crossAxisAlign": "stretch",
                "backgroundColor": "white",
                "padding": true,
                "paddingSize": "smallPadding",
                "width": "100%",
                "marginTop": "smallPadding",
                "autoChildMargins": true,
                "autoChildMarginsSize": "tinyPadding"
            },
            "wgts": [
                {
                    "traits": [
                        {
                            "trait": "@l2_inputs/formInput/index",
                            "traitPrps": {
                                "label": "Status",
                                "prpsInput": {
                                    "open": "POPUP1",
                                    "lookupData": [
                                        {
                                            "name": "Close"
                                        },
                                        {
                                            "name": "Escalate"
                                        },
                                        {
                                            "name": "Raise Investigation"
                                        }
                                    ],
                                    "lookupFlows": [
                                        {
                                            "fromSubKey": "name"
                                        }
                                    ],
                                    "color": "black"
                                }
                            }
                        }
                    ],
                    "prps": {
                        "dir": "vertical",
                        "crossAxisAlign": "start",
                        "mainAxisAlign": "start"
                    }
                },
                {
                    "traits": [
                        {
                            "trait": "@l2_inputs/formInput/index",
                            "traitPrps": {
                                "label": "User Comment",
                                "prpsInput": {
                                    "multiline": true,
                                    "value": ""
                                }
                            }
                        }
                    ],
                    "prps": {
                        "width": "100%"
                    }
                },
                {
                    "traits": [
                        {
                            "trait": "@l2_inputs/formInput/index",
                            "traitPrps": {
                                "label": "Upload File",
                                "prpsInput": {
                                    "dataType": "file"
                                }
                            }
                        }
                    ]
                }
            ]
        },
        {
            "type": "containerSimple",
            "prps": {
                "dir": "horizontal",
                "mainAxisAlign": "space-between",
                "marginTop": "giantPadding",
                "width": "100%"
            },
            "wgts": [
                {
                    "traits": [
                        {
                            "trait": "@l2_buttons/visual/primary/index",
                            "traitPrps": {
                                "cpt": "Close"
                            }
                        }
                    ],
                    "prps": {
                        "marginRight": "auto"
                    }
                },
                {
                    "type": "containerSimple",
                    "prps": {
                        "dir": "horizontal",
                        "mainAxisAlign": "end"
                    },
                    "wgts": [
                        {
                            "traits": [
                                {
                                    "trait": "@l2_buttons/visual/primary/index",
                                    "traitPrps": {
                                        "cpt": "Save"
                                    }
                                }
                            ],
                            "prps": {}
                        },
                        {
                            "traits": [
                                {
                                    "trait": "@l2_buttons/visual/primary/index",
                                    "traitPrps": {
                                        "cpt": "Submit"
                                    }
                                }
                            ],
                            "prps": {
                                "marginLeft": "tinyPadding"
                            }
                        }
                    ]
                }
            ]
        }
    ]
}