{
	"acceptPrps": {},
	"traitArray": [
		{
			"type": "createFlow",
			"toKey": "timeString",
			"value": "{{state.self.dateTimeObject}}",
			"mapFunctionString": "v => v.toLocaleTimeString()"
		}
	]
}