{
	"id": "systemDashboard",
	"type": "containerSimple",
	"prps": {
		"singlePage": true,
		"backgroundColor": "black"
	},
	"wgts": [
		{
			"traits": [
				{
					"trait": "navbar"
				}
			]
		},
		{
			"id": "systemViewport",
			"type": "viewport",
			"prps": {
				"value": "pages/landing"
			}
		}
	]
}