{
	"acceptPrps": {},
	"prps": {
		"scps": [
			{
				"id": "sOVS",
				"triggers": [
					{
						"event": "onStateChange",
						"source": "||datePicker.datePickerToggler||",
						"key": "isOpen",
						"match": [
							{
								"operator": "isFalsy",
								"value": "{{state.||datePicker.datePickerToggler||.isOpen}}"
							}
						]
					}
				],
				"actions": [
					{
						"type": "stopScript",
						"condition": {
							"operator": "isFalsy",
							"value": "{{sOVS.state.||datePicker.cpnDatePicker||.day}}"
						}
					},
					{
						"type": "applyComparison",
						"operator": "isEqual",
						"value": "eval- '((sOVS.state.||datePicker.cpnDatePicker||.day))'.length",
						"compareValue": 1,
						"branch": {
							"true": [
								{
									"type": "setVariable",
									"name": "day",
									"value": "0((sOVS.state.||datePicker.cpnDatePicker||.day))"
								}
							],
							"false": [
								{
									"type": "setVariable",
									"name": "day",
									"value": "((sOVS.state.||datePicker.cpnDatePicker||.day))"
								}
							]
						}
					},
					{
						"type": "applyComparison",
						"operator": "isEqual",
						"value": "eval- '((sOVS.state.||datePicker.cpnDatePicker||.month))'.length",
						"compareValue": 1,
						"branch": {
							"true": [
								{
									"type": "setVariable",
									"name": "month",
									"value": "eval- `0${((sOVS.state.||datePicker.cpnDatePicker||.month)) + 1}`"
								}
							],
							"false": [
								{
									"type": "setVariable",
									"name": "month",
									"value": "eval- `${((sOVS.state.||datePicker.cpnDatePicker||.month)) + 1}`"
								}
							]
						}
					},
					{
						"type": "applyComparison",
						"operator": "isTruthy",
						"value": "{{state.||datePicker.datePickerManager||.timeString}}",
						"branch": {
							"true": [
								{
									"type": "setVariable",
									"name": "dateTimeObject",
									"value": "eval- new Date( '((sOVS.state.||datePicker.cpnDatePicker||.year))-((sOVS.variable.month))-((sOVS.variable.day)) ((sOVS.state.||datePicker.datePickerManager||.timeString))' )"
								}
							],
							"false": [
								{
									"type": "setVariable",
									"name": "dateTimeObject",
									"value": "eval- new Date( '((sOVS.state.||datePicker.cpnDatePicker||.year))-((sOVS.variable.month))-((sOVS.variable.day)) 00:00:00' )"
								}
							]
						}
					},
					{
						"type": "applyComparison",
						"operator": "isNotEqual",
						"value": "((variable.dateTimeObject))",
						"compareValue": "((state.||datePicker.datePickerManager||.dateTimeObject))",
						"branch": {
							"true": [
								{
									"type": "setState",
									"target": "||datePicker.datePickerManager||",
									"key": "dateTimeObject",
									"value": "{{variable.dateTimeObject}}"
								}
							]
						}
					},
					{
						"type": "deleteVariables",
						"variables": [
							"dateTimeObject",
							"day",
							"month"
						]
					}
				]
			}
		]
	}
}