{
	"themeConfig": {
        "isStyleTheme": false,
        "isFunctionTheme": true
    },
    "buildWhereClause": {
    	 "acceptArgs": {
            "filters": {
                "type": "array",
                "spec": [
                	{
                		"key": "field",
                		"operator": "operator",
                		"value": "value"
                	}
                ]
            }
        },
        "fn": ">ensembles/l2_grid/functions/buildWhereClause"
    }
}