{
	"acceptPrps": {},
	"prps": {
		"scps": [
			{
				"triggers": [
					{
						"event": "onMount"
					},
					{
						"event": "onStateChange",
						"key": "value",
						"ignoreEmpty": false
					}
				],
				"actions": [
					{
						"type": "stopScript",
						"^condition": {
							"operator": "isEqual",
							"value": "{{state.self.value}}",
							"compareValue": "{{state.||formInput||.value}}"
						}
					},
					{
						"type": "setState",
						"target": "||formInput||",
						"key": "value",
						"value": "{{state.self.value}}"
					}
				]
			}
		]
	}
}