{
	"acceptPrps": {},
	"prps": {
		"scps": [
			{
				"triggers": [
					{
						"event": "onMount"
					},
					{
						"event": "onStateChange",
						"key": "dataType"
					}
				],
				"actions": [
					{
						"type": "applyComparison",
						"operator": "isEqual",
						"value": "((state.self.dataType))",
						"compareValue": "password",
						"branch": {
							"true": [
								{
									"type": "setMultiState",
									"value": {
										"fontFamily": "Verdana",
										"fontSize": "medium"
									}
								}
							],
							"false": [
								{
									"type": "setMultiState",
									"value": {
										"fontFamily": "unset",
										"fontSize": "unset"
									}
								}
							]
						}
					}
				]
			}
		]
	}
}