{
	"acceptPrps": {},
	"prps": {
		"scps": [
			{
				"id": "sST",
				"triggers": [
					{
						"event": "onStateChange",
						"key": "hasFocus"
					}
				],
				"actions": [
					{
						"type": "stopScript",
						"condition": {
							"operator": "some",
							"comparisons": [
								{
									"operator": "isFalsy",
									"value": "{{sST.state.self.hasFocus}}"
								},
								{
									"operator": "isTruthy",
									"value": "{{sST.state.self.readOnly}}"
								},
								{
									"operator": "isTruthy",
									"value": "{{sST.state.||formInput||.isDisabled}}"
								},
								{
									"operator": "isTruthy",
									"value": "{{sST.state.||formInput||.hasBeenTouched}}"
								}
							]
						}
					},
					{
						"type": "setState",
						"target": "||formInput||",
						"key": "hasBeenTouched",
						"value": true
					}
				]
			}
		]
	}
}