{
	"acceptPrps": {},
	"prps": {
		"scps": [
			{
				"id": "sSFL",
				"triggers": [
					{
						"event": "onMount"
					},
					{
						"event": "onStateChange",
						"source": "||formInput.input||",
						"keyList": [
							"value",
							"maxLength"
						],
						"ignoreEmpty": false
					}
				],
				"actions": [
					{
						"type": "applyComparison",
						"operator": "some",
						"comparisons": [
							{
								"operator": "isTruthy",
								"value": "{{sSFL.state.||formInput||.isDisabled}}"
							},
							{
								"operator": "isFalsy",
								"value": "{{sSFL.state.||formInput.input||.maxLength}}"
							}
						],
						"branch": {
							"true": [
								{
									"type": "setState",
									"key": "vis",
									"value": false
								}
							],
							"false": [
								{
									"type": "createFlow",
									"toKey": "cpt",
									"value": {
										"value": "{{sSFL.state.||formInput.input||.value}}",
										"maxLength": "{{sSFL.state.||formInput.input||.maxLength}}"
									},
									"mapFunctionString": "({ value, maxLength }) => `${ value ? value.length : '0' }/${maxLength}`;"
								},
								{
									"type": "setState",
									"key": "vis",
									"value": true
								}
							]
						}
					}
				]
			}
		]
	}
}