{
	"acceptPrps": {
		"title": "string",
		"columnIndex": "integer",
		"columnConfig": "object",
		"canFilter": "boolean",
		"crossAxisAlign": {
			"morph": true,
			"morphVariable": "result",
			"morphActions": [
				{
					"type": "setVariable",
					"name": "result",
					"value": "eval- '%columnConfig.canFilter%' !== 'false' ? 'start' : 'center'"
				}
			]
		}
	},
	"scope": "actionHeaderCell",
	"type": "containerSimple",
	"prps": {
		"dir": "horizontal",
		"crossAxisAlign": "%crossAxisAlign%",
		"padding": true,
		"paddingSize": "tinyPadding smallPadding",
		"height":  "68px",
		"borderBottom": "2px solid {theme.colors.lightGrey}",
		"mainAxisAlign": "%columnConfig.align%",
		"overflow": "hidden"
	},
	"wgts": [
		{
			"traits": "$columnConfig.headerTraits$"
		}
	]
}