{
	"acceptPrps": {},
	"prps": {
		"scps": [
			{
				"triggers": [
					{
						"event": "onStateChange",
						"source": "||grid.dataManager||",
						"key": "fetchedData",
						"match": [
							{
								"operator": "isTruthy",
								"value": "{{state.self.filters.length}}"
							},
							{
								"operator": "isFalsy",
								"value": "{{state.||grid||.persistSelectedRecordsOnDataFiltered}}"
							}
						]
					}
				],
				"actions": [
					{
						"type": "setState",
						"key": "filters",
						"value": {
							"key": "RESET-FILTERS"
						}
					}
				]
			},
			{
				"triggers": [
					{
						"event": "onStateChange",
						"key": "filters"
					}
				],
				"actions": [
					{
						"type": "setVariable",
						"name": "index",
						"value": "eval- ((state.self.filters.length)) - 1"
					},
					{
						"type": "applyComparison",
						"operator": "isEqual",
						"value": "((state.self.filters.((variable.index)).key))",
						"compareValue": "RESET-FILTERS",
						"branch": {
							"true": [
								{
									"type": "setState",
									"key": "deleteKeys",
									"value": [
										"filters"
									]
								}
							]
						}
					},
					{
						"type": "deleteVariables",
						"variables": [
							"index"
						]
					}
				]
			}
		]
	}
}