{
	"acceptPrps": {
		"dir": {
			"type": "string",
			"desc": "The direction of the button's content",
			"options": ["horizontal", "vertical"],
			"dft": "horizontal"
		},
		"icon": {
			"type": "string",
			"desc": "The name of the material icon to display: https://fonts.google.com/icons?selected=Material+Icons"
		},
		"cpt": {
			"type": "string",
			"desc": "The button's caption"
		},
		"enabled": {
			"type": "boolean",
			"desc": "Defines whether the button is enabled",
			"dft": true
		},
		"bold": {
			"type": "boolean",
			"desc": "Defines whether the button's caption should be bold",
			"dft": true
		}
	},
	"scope": "button",
	"type": "container",
	"prps": {
		"enabled": "$enabled$",
		"canClick": true,
		"canHover": true,
		"overflow": "hidden",
		"dir": "horizontal",
		"paddingSize": "smallPadding",
		"crossAxisAlign": "center"
	},
	"wgts": [
		{
			"relId": "icon",
			"type": "icon",
			"prps": {
				"value": "%icon%",
				"color": "{theme.l2_buttons_colors.iconText/iconHoverOff}"
			}
		},
		{
			"relId": "label",
			"type": "label",
			"prps": {
				"cpt": "%cpt%",
				"color": "{theme.l2_buttons_colors.iconText/textHoverOff}",
				"marginLeft": "tinyPadding",
				"bold": "$bold$"
			}
		}
	]
}