{
    "borderRight": "black",
    "background": "black",
    "menuItemIconHoverOff": "white",
    "menuItemIconHoverOn": "white",
    "menuItemLabelHoverOff": "white",
    "menuItemLabelHoverOn": "white",
    "menuItemIconActive": "white",
    "menuItemLabelActive": "{theme.colors.primary}",
    "parentItemBackgroundExpanded": "rgba(var(--colors-lightPrimary-rgb), 0.3)"
}