{
	"acceptPrps": {
		"placeholder": "string",
		"placeholderColor": "string",
		"valueColor": "string"
	},
	"prps": {
		"scps": [
			{
				"triggers": [
					{
						"event": "onMount"
					},
					{
						"event": "onStateChange",
						"key": "cpt"
					},
					{
						"event": "onStateChange",
						"source": "||datePickerToggler||",
						"key": "hovered"
					}
				],
				"actions": [
					{
						"type": "applyComparison",
						"operator": "isTruthy",
						"value": "{{state.||datePickerToggler||.hovered}}",
						"branch": {
							"true": [
								{
									"type": "setState",
									"key": "color",
									"value": "primary"
								}
							],
							"false": [
								{
									"type": "applyComparison",
									"operator": "isEqual",
									"value": "{{state.self.cpt}}",
									"compareValue": "%placeholder%",
									"branch": {
										"true": [
											{
												"type": "setState",
												"key": "color",
												"value": "%placeholderColor%"
											}
										],
										"false": [
											{
												"type": "setState",
												"key": "color",
												"value": "%valueColor%"
											}
										]
									}
								}
							]
						}
					}
				]
			}
		]
	}
}