{
	"acceptPrps": {},
	"type": "containerSimple",
	"prps": {
		"dir": "horizontal",
		"height": "48px",
		"mainAxisAlign": "start",
		"crossAxisAlign": "center",
		"margin": "padding padding noPadding padding",
		"autoChildMargins": true,
		"autoChildMarginsSize": "smallPadding"
	}
}