{
	"acceptPrps": {},
	"prps": {
		"scps": [
			{
				"id": "sOALV",
				"triggers": [
					{
						"event": "onMount",
						"match": [
							{
								"operator": "isTruthy",
								"value": "{{state.||grid.selectedRecordsManager||.filters.length}}"
							}
						]
					},
					{
						"event": "onStateChange",
						"source": "||grid.selectedRecordsManager||",
						"key": "filters"
					},
					{
						"event": "onStateChange",
						"source": "||grid.dataManager||",
						"key": "fetchedData",
						"match": [
							{
								"operator": "isTruthy",
								"value": "{{state.||grid||.persistSelectedRecordsOnDataFiltered}}"
							}
						]
					}
				],
				"actions": [
					{
						"type": "setVariable",
						"name": "selectedEntries",
						"value": "{{state.||grid.selectedRecordsManager||.filters}}"
					},
					{
						"type": "setVariable",
						"name": "fetchedData",
						"value": "{{state.||grid.dataManager||.fetchedData}}"
					},
					{
						"type": "setVariable",
						"name": "usePrimaryKeyForSelectedRecordKey",
						"value": "{{state.||grid||.usePrimaryKeyForSelectedRecordKey}}"
					},
					{
						"type": "setVariable",
						"name": "recordPrimaryKey",
						"value": "{{state.||grid||.recordPrimaryKey}}"
					},
					{
						"type": "setVariable",
						"name": "matchedEntries",
						"value": []
					},
					{
						"id": "sOALV-ME",
						"type": "morphIterateArray",
						"value": "{{variable.fetchedData}}",
						"chain": [
							{
								"type": "applyComparison",
								"operator": "isTruthy",
								"value": "{{sOALV.variable.usePrimaryKeyForSelectedRecordKey}}",
								"branch": {
									"true": [
										{
											"type": "setVariable",
											"name": "filterKey",
											"value": "{{sOALV-ME.variable.record.((sOALV.variable.recordPrimaryKey))}}"
										}
									],
									"false": [
										{
											"type": "setVariable",
											"name": "filterKey",
											"value": "((variable.rowNum))"
										}
									]
								}
							},
							{
								"id": "sGMSE",
								"type": "findInArray",
								"value": "{{sOALV.variable.selectedEntries}}",
								"comparison": {
									"operator": "isEqual",
									"value": "{{sGMSE.variable.record.key}}",
									"compareValue": "{{sOALV-ME.variable.filterKey}}"
								},
								"storeAsVariable": "matchedEntry"
							},
							{
								"actionCondition": {
									"operator": "isTruthy",
									"value": "{{sOALV-ME.variable.matchedEntry}}"
								},
								"type": "pushVariable",
								"scope": "sOALV",
								"name": "matchedEntries",
								"value": "{{variable.matchedEntry}}"
							},
							{
								"type": "deleteVariables",
								"variables": [
									"filterKey",
									"matchedEntry",
									"record",
									"rowNum"
								]
							}
						]
					},
					{
						"type": "applyComparison",
						"operator": "isEqual",
						"value": "{{variable.fetchedData.length}}",
						"compareValue": "{{variable.matchedEntries.length}}",
						"branch": {
							"true": [
								{
									"type": "applyComparison",
									"operator": "isNotEqual",
									"value": "{{state.self.value}}",
									"compareValue": true,
									"branch": {
										"true": [
											{
												"type": "setState",
												"value": true
											}
										]
									}
								}
							],
							"false": [
								{
									"type": "applyComparison",
									"operator": "isNotEqual",
									"value": "{{state.self.value}}",
									"compareValue": false,
									"branch": {
										"true": [
											{
												"type": "setState",
												"value": false
											}
										]
									}
								}
							]
						}
					},
					{
						"type": "deleteVariables",
						"variables": [
							"selectedEntries",
							"fetchedData",
							"usePrimaryKeyForSelectedRecordKey",
							"recordPrimaryKey",
							"matchedEntries"
						]
					}
				]
			}
		]
	}
}