{
    "acceptPrps": {},
    "prps": {
        "scps": [
            {
                "triggers": [
                    {
                        "event": "onStateChange"
                    }
                ],
                "actions": [
                    {
                        "type": "cancelDelayedActions",
                        "delayId": "{{variable.delayId}}"
                    },
                    {
                        "type": "queueDelayedActions",
                        "delay": 500,
                        "storeAsVariable": "delayId",
                        "actions": [
                            {
                                "type": "setVariable",
                                "name": "newOffset",
                                "value": "eval- (((state.self.value)) - 1) * ((state.||grid.dataManager||.pageSize))"
                            },
                            {
                                "type": "applyComparison",
                                "operator": "isEqualCase",
                                "value": "{{variable.newOffset}}",
                                "compareValue": "{{state.||grid.dataManager||.offset}}",
                                "branch": {
                                    "false": [
                                        {
                                            "type": "setVariable",
                                            "name": "maxOffset",
                                            "value": "((state.||grid.dataManager||.lastPageOffset))"
                                        },
                                        {
                                            "type": "applyComparison",
                                            "operator": "isGreaterEqualThan",
                                            "value": "{{variable.newOffset}}",
                                            "compareValue": "{{variable.maxOffset}}",
                                            "branch": {
                                                "true": [
                                                    {
                                                        "type": "setVariable",
                                                        "name": "newOffset",
                                                        "value": "{{variable.maxOffset}}"
                                                    }
                                                ]
                                            }
                                        },
                                        {
                                            "type": "applyComparison",
                                            "operator": "isLessEqualThan",
                                            "value": "{{variable.newOffset}}",
                                            "compareValue": 0,
                                            "branch": {
                                                "true": [
                                                    {
                                                        "type": "setVariable",
                                                        "name": "newOffset",
                                                        "value": 0
                                                    }
                                                ]
                                            }
                                        },
                                        {
                                            "type": "setState",
                                            "target": "||grid.dataManager||",
                                            "key": "offset",
                                            "value": "{{variable.newOffset}}"
                                        }
                                    ]
                                }
                            },
                            {
                                "type": "deleteVariables",
                                "variables": [
                                    "newOffset"
                                ]
                            }
                        ]
                    }
                ]
            }
        ]
    }
}