{
	"acceptPrps": {},
	"type": "label",
	"traits": [
		"./functional/showFieldLength"
	],
	"prps": {
		"marginLeft": "auto",
		"color": "black",
		"fontSize": "fontSizeSmall",
		"marginTop": "calc(var(--global-tinyPadding) / 2)",
		"vis": false
	}
}