{
	"acceptPrps": {
		"pageSize": "integer"
	},
	"type": "containerSimple",
	"scope": "paginationToolbar",
	"prps": {
		"dir": "horizontal",
		"mainAxisAlign": "start",
		"crossAxisAlign": "center",
		"borderTop": "2px solid {theme.colors.lightGrey}"
	},
	"wgts": [
		{
			"traits": [
				"./visual/pagerContainer/index"
			],
			"prps": {
				"marginLeft": "padding"
			}
		},
		{
			"traits": [
				{
					"trait": "./visual/offsetContainer/index",
					"traitPrps": {
						"pageSize": "$pageSize$"
					}
				}
			],
			"prps": {
				"marginLeft": "smallPadding"
			}
		}
	]
}