{
	"acceptPrps": {
		"columnConfig": {
			"spec": {
				"key": "The key inside each record this column relates to",
				"name": "The column title",
				"type": "The data type",
				"enabled": "Is the column editable?",
				"vis": "Is the column visible?"
			},
			"type": "object"
		},
		"prefix": {
			"type": "string",
			"comment": "A prefix to be applied to the filter when the value is set.",
			"dft": ""
		}
	},
	"prps": {
		"scps": [
			{
				"id": "sOPVC",
				"triggers": [
					{
						"event": "onStateChange",
						"key": "value"
					}
				],
				"actions": [
					{
						"type": "applyComparison",
						"operator": "isNotFalsy",
						"value": "{{state.self.value}}",
						"branch": {
							"true": [
								{
									"type": "setVariable",
									"name": "valueSubstring",
									"value": "eval- '((state.self.value))'.substring(0, 2)"
								},
								{
									"type": "stopScript",
									"condition": {
										"operator": "isEqual",
										"value": "((sOPVC.variable.valueSubstring))",
										"compareValue": "%prefix%"
									}
								},
								{
									"type": "deleteVariable",
									"name": "valueSubstring"
								},
								{
									"type": "setState",
									"target": "||grid.dataManager||",
									"key": "filters",
									"^value": {
										"key": "%columnConfig.key%_filterKeyDelimiter_%prefix%",
										"operator": "contains",
										"value": "%prefix%((state.self.value))"
									}
								}
							],
							"false": [
								{
									"type": "setState",
									"target": "||grid.dataManager||",
									"key": "deleteKeys",
									"value": [
										{
											"key": "filters",
											"value": {
												"key": "%columnConfig.key%",
												"forceRemove": true
											}
										}
									]
								}
							]
						}
					}
				]
			}
		]
	}
}