{
	"acceptPrps": {
		"label": {
			"type": "string",
			"desc": "The cpt of the checkbox"
		}
	},
	"scope": "formCheckbox",
	"type": "container",
	"prps": {
		"value": null,
		"dir": "horizontal",
		"margin": "tinyPadding smallPadding",
		"crossAxisAlign": "center",
		"canClick": true,
		"fireScript": {
			"actions": [
				{
					"type": "setState",
					"value": "eval- !((state.self.value))"
				}
			]
		}
	},
	"wgts": [
		{
			"type": "icon",
			"prps": {
				"flows": [
					{
						"from": "||formCheckbox||",
						"fromKey": "value",
						"mapFunctionString": "v => v ? 'check_box' : 'check_box_outline_blank';"
					}
				]
			}
		},
		{
			"condition": {
				"operator": "isTruthy",
				"value": "$label$"
			},
			"type": "label",
			"prps": {
				"marginLeft": "smallPadding",
				"cpt": "%label%"
			}
		}
	]
}