{
    "acceptPrps": {},
    "type": "container",
    "traits": [
        "./functional/onClickLogout"
    ],
    "prps": {
        "dir": "horizontal",
        "canClick": true,
        "crossAxisAlign": "center",
        "padding": true,
        "paddingSize": "padding noPadding",
        "height": "100%"
    },
    "wgts": [
        {
            "type": "icon",
            "prps": {
                "value": "logout",
                "color": "lightSecondary"
            }
        },
        {
            "type": "label",
            "prps": {
                "marginLeft": "tinyPadding",
                "bold": true,
                "cpt": "Log Out"
            }
        }
    ]
}