{
	"acceptPrps": {
		"title": "string",
		"columnIndex": "integer",
		"columnConfig": "object",
		"cellId": "string",
		"gridId": "string",
		"canResizeColumns": "boolean"
	},
	"scope": "headerCell",
	"type": "containerSimple",
	"prps": {
		"dir": "horizontal",
		"crossAxisAlign": "center",
		"padding": true,
		"paddingSize": "tinyPadding smallPadding",
		"height": "68px",
		"borderBottom": "2px solid {theme.colors.lightGrey}",
		"overflow": "hidden"
	},
	"wgts": [
		{
			"id": "container-%cellId%",
			"type": "containerSimple",
			"prps": {
				"flex": true,
				"padding": true,
				"paddingSize": "tinyPadding noPadding",
				"autoChildMargins": true,
				"autoChildMarginsSize": "tinyPadding",
				"crossAxisAlign": "%columnConfig.align%",
				"overflow": "hidden"
			},
			"wgts": [
				{
					"relId": "label",
					"type": "container",
					"prps": {
						"dir": "horizontal",
						"canHover": true,
						"canClick": true
					},
					"traits": [
						{
							"condition": {
								"operator": "isNotEqual",
								"value": "$columnConfig.canSort$",
								"compareValue": false
							},
							"trait": "./functional/onSortColumn",
							"traitPrps": {
								"columnConfig": "$columnConfig$"
							}
						}
					],
					"wgts": [
						{
							"type": "label",
							"prps": {
								"cpt": "%title%",
								"labelType": "h3",
								"bold": true,
								"userSelect": "text",
								"textOverflow": "ellipsis",
								"overflow": "hidden",
								"whiteSpace": "nowrap"
							}
						},
						{
							"condition": {
								"operator": "isNotEqual",
								"value": "$columnConfig.canSort$",
								"compareValue": false
							},
							"traits": [
								{
									"trait": "./visual/sortIcon",
									"traitPrps": {
										"columnConfig": "$columnConfig$"
									}
								}
							]
						}
					]
				},
				{
					"condition": {
						"operator": "all",
						"comparisons": [
							{
								"operator": "isNotEqual",
								"value": "$columnConfig.canFilter$",
								"compareValue": false
							},
							{
								"operator": "containedInCase",
								"value": "%columnConfig.type%",
								"compareValue": [
									"string",
									"integer"
								]
							}
						]
					},
					"traits": [
						{
							"trait": "./visual/inputFilter/index",
							"traitPrps": {
								"cellId": "%cellId%",
								"columnConfig": "$columnConfig$"
							}
						}
					]
				},
				{
					"condition": {
						"operator": "all",
						"comparisons": [
							{
								"operator": "isNotEqual",
								"value": "$columnConfig.canFilter$",
								"compareValue": false
							},
							{
								"operator": "containedInCase",
								"value": "%columnConfig.type%",
								"compareValue": [
									"boolean"
								]
							}
						]
					},
					"prps": {
						"tags": [
							"gridFilterCell"
						],
						"height": "17px",
						"intitialFilterValue": null
					},
					"traits": [
						{
							"trait": "@l2_grid/visual/shared/checkbox",
							"traitPrps": {
								"triState": "$columnConfig.triStateFilter$"
							}
						},
						{
							"trait": "./functional/onSetInitialColumnFilterValue",
							"traitPrps": {
								"columnConfig": "$columnConfig$"
							}
						},
						{
							"trait": "./functional/onColumnFilterCheckboxValueChanged",
							"traitPrps": {
								"columnConfig": "$columnConfig$"
							}
						},
						{
							"trait": "./functional/onClearFilter",
							"traitPrps": {}
						}
					]
				},
				{
					"condition": {
						"operator": "all",
						"comparisons": [
							{
								"operator": "isNotEqual",
								"value": "$columnConfig.canFilter$",
								"compareValue": false
							},
							{
								"operator": "containedInCase",
								"value": "%columnConfig.type%",
								"compareValue": [
									"date",
									"datetime"
								]
							}
						]
					},
					"traits": [
						{
							"trait": "./visual/dateRangeFilter/index",
							"traitPrps": {
								"columnConfig": "$columnConfig$"
							}
						}
					]
				}
			]
		},
		{
			"condition": {
				"operator": "isTruthy",
				"value": "$canResizeColumns$"
			},
			"traits": [
				{
					"trait": "./../resizer/index",
					"traitPrps": {
						"gridId": "%gridId%"
					}
				}
			]
		}
	]
}