{
	"acceptPrps": {
		"icon": {
			"type": "string",
			"comment": "The button's icon value"
		}
	},
	"prps": {
		"scps": [
			{
				"triggers": [
					{
						"event": "onStateChange",
						"key": "hovered",
						"match": [
							{
								"comparison": "isNotFalsy",
								"value": "{{state.self.enabled}}"
							}
						]
					}
				],
				"actions": [
					{
						"type": "setVariable",
						"name": "color",
						"value": "eval- ((state.self.hovered)) ? '{theme.l2_buttons_colors.secondary/borderHoverOn}' : '{theme.l2_buttons_colors.secondary/borderHoverOff}'"
					},
					{
						"type": "setState",
						"key": "border",
						"value": "1px solid var(--colors-((variable.color)))"
					},
					{
						"type": "setState",
						"target": "||button.label||",
						"key": "color",
						"value": "((variable.color))"
					},
					{
						"type": "applyComparison",
						"operator": "isNotFalsy",
						"value": "%icon%",
						"branch": {
							"true": [
								{
									"type": "setState",
									"target": "||button.icon||",
									"key": "color",
									"value": "((variable.color))"
								}
							]
						}
					},
					{
						"type": "deleteVariable",
						"name": "color"
					}
				]
			}
		]
	}
}