{
	"acceptPrps": {},
	"prps": {
		"triggerClearFilter": false,
		"scps": [
			{
				"id": "sCF",
				"triggers": [
					{
						"event": "onStateChange",
						"key": "triggerClearFilter"
					}
				],
				"actions": [
					{
						"type": "stopScript",
						"condition": {
							"operator": "isFalsy",
							"value": "{{sCF.state.self.triggerClearFilter}}"
						}
					},
					{
						"type": "setState",
						"key": "resetDatePicker",
						"value": true
					}
				]
			}
		]
	}
}