{
	"acceptPrps": {
		"columnConfig": {
			"spec": {
				"key": "The key inside each record this column relates to",
				"name": "The column title",
				"type": "The data type",
				"enabled": "Is the column editable?",
				"vis": "Is the column visible?"
			},
			"type": "object"
		}
	},
	"prps": {
		"fireScript": {
			"actions": [
				{
					"comment": "If we're already filtering on this field, swap the direction",
					"type": "applyComparison",
					"operator": "isEqual",
					"value": "{{state.||grid.dataManager||.sortfield}}",
					"compareValue": "%columnConfig.key%",
					"branch": {
						"true": [
							{
								"type": "setState",
								"target": "||grid.dataManager||",
								"key": "sortascending",
								"value": "eval- !((state.||grid.dataManager||.sortascending))"
							}
						],
						"false": [
							{
								"type": "setMultiState",
								"target": "||grid.dataManager||",
								"value": {
									"sortfield": "%columnConfig.key%",
									"sortascending": true
								}
							}
						]
					}
				}
			]
		}
	}
}