{
	"acceptPrps": {
		"record": "object",
		"data": "array",
		"isMain": {
			"dft": false
		},
		"index": "number"
	},
	"id": "parentContainer-%index%",
	"scope": "itemContainer",
	"type": "container",
	"traits": [
		{
			"trait": "./buildItemsOnMount",
			"traitPrps": {
				"isMain": "$isMain$"
			}
		}
	],
	"prps": {
		"data": "$data$",
		"expanded": false,
		"padding": true,
		"paddingSize": "0px",
		"transitionProperty": "backgroundColor",
		"transitionDuration": "0.35s",
		"flows": [
			{
				"fromKey": "expanded",
				"toKey": "backgroundColor",
				"mapFunctionString": "v => (v && !%isMain%) ? 'rgba(var(--colors-lightSecondary-rgb), 0.08)' : 'transparent'"
			},
			{
				"fromKey": "expanded",
				"toKey": "paddingSize",
				"mapFunctionString": "v => (v && !%isMain%) ? '0px 0px 6px 0px' : '0px'"
			}
		]
	},
	"wgts": [
		{
			"traits": [
				{
					"trait": "./parentItem",
					"traitPrps": {
						"record": "$record$"
					}
				}
			]
		}
	]
}