{
    "prps": {
        "scps": [
            {
                "triggers": [
                    {
                        "event": "onStateChange",
                        "key": "vis"
                    }
                ],
                "actions": [
                    {
                        "type": "applyComparison",
                        "operator": "isTruthy",
                        "value": "{{state.self.vis}}",
                        "branch": {
                            "true": [
                                {
                                    "type": "setVariable",
                                    "name": "panelStack",
                                    "value": "{{state.appDashboard.panelStack}}"
                                },
                                {
                                    "type": "pushVariable",
                                    "name": "panelStack",
                                    "value": "((state.self.id))"
                                },
                                {
                                    "type": "setState",
                                    "target": "appDashboard",
                                    "key": "panelStack",
                                    "value": "{{variable.panelStack}}"
                                }
                            ],
                            "false": [
                                {
                                    "type": "setVariable",
                                    "name": "panelStack",
                                    "value": "{{state.appDashboard.panelStack}}"
                                },
                                {
                                    "id": "uPSFA",
                                    "type": "filterArray",
                                    "value": "{{variable.panelStack}}",
                                    "condition": {
                                        "operator": "isNotEqual",
                                        "value": "{{uPSFA.variable.record}}",
                                        "compareValue": "((uPSFA.state.self.id))"
                                    },
                                    "storeAsVariable": "updatedStack"
                                },
                                {
                                    "type": "setState",
                                    "target": "appDashboard",
                                    "key": "panelStack",
                                    "value": "{{variable.updatedStack}}"
                                }
                            ]
                        }
                    }
                ]
            }
        ]
    }
}